INDEX VERSION 1.127+C:\Users\parag.saxena\Desktop\Pig-Utility\Automation_Maven\.metadata\.plugins\org.eclipse.jdt.core
1889944748.index
764588606.index
47423239.index
4236009997.index
83085761.index
2945162093.index
2261558828.index
1627000375.index
3764404749.index
1484076330.index
2949877420.index
2634345840.index
1651349548.index
1554803233.index
1948745554.index
4254267911.index
430205200.index
3930511455.index
1670528678.index
3678980623.index
509712851.index
3149959557.index
4142306923.index
900771366.index
1495160494.index
1507339265.index
3876561862.index
