<?xml version="1.0" encoding="UTF-8"?>
<session version="1.0">
<refactoring accessors="true" comment="Delete element from project &apos;Pig_Automation&apos;&#x0D;&#x0A;- Original project: &apos;Pig_Automation&apos;&#x0D;&#x0A;- Original element: &apos;bigdata.AliasManagement.java&apos;" description="Delete element" element1="/src\/main\/java&lt;bigdata{AliasManagement.java" elements="1" flags="589830" id="org.eclipse.jdt.ui.delete" resources="0" stamp="1486557326611" subPackages="false" version="1.0"/>
</session>